Operi veš;ovo je opis dosta dobrog taska, baš je ok task. Čisto dobar.;0;2019-07-19
Napravi projekt iz C#;ovo je opis dosta dobrog taska, baš je ok task. Čisto dobar. ;0;2019-08-03
Napiši završni;ovo je opis dosta dobrog taska, baš je ok task. Čisto dobar. ;0;2019-11-14
Obrani zavšni;ovo je opis dosta dobrog taska, baš je ok task. Čisto dobar. ;0;2019-07-19
Projekt iz mobilnih;ovo je opis dosta dobrog taska, baš je ok task. Čisto dobar. ;0;2019-07-17
Popravi bugove;kratki opis;0;2019-07-02
Napiši readme;kratki opis;0;2019-07-18
Komentiraj kod;;0;2019-07-01
Napravi projekt iz Jave;kratki opis;1;2019-05-22
Add button;kratki opis;1;2019-07-10
Remove button;kratki opis;1;2019-05-14
Prebacivanje iz lista;kratki opis;1;2019-07-24
Napravi projekt na gitu;kratki opis;1;2019-06-11
Napravi da duedate radi;;1;2020-06-07
Uvedi duedate;;1;2019-07-20
Napuni testnim podacima;;1;0
Dodaj puno taskova;;1;0
Task 1;;1;0
Task 2;;1;0
Task 3;;1;0
Task 4;;1;0
Task 5;;1;0
Task 6;;1;0
AAAAA;;1;2019-07-06
Loadanje;;1;2019-07-19
Sejvanje;napravi super foru da ti se ispiše gdje ti je spremio file;1;2019-07-14
